17_mc0512/tb.vcd
$date
	Wed Oct  9 07:14:24 2024
$end
$version
	Icarus Verilog
$end
$timescale
	1ns
$end
$scope module tb $end
$var wire 1 ! we $end
$var wire 1 " pw $end
$var wire 1 # pr $end
$var wire 16 $ pa [15:0] $end
$var wire 8 % out [7:0] $end
$var wire 20 & address [19:0] $end
$var reg 1 ' clock $end
$var reg 1 ( clock25 $end
$var reg 8 ) in [7:0] $end
$var reg 1 * reset_n $end
$scope module TurboCore $end
$var wire 1 + af $end
$var wire 1 , ce $end
$var wire 1 ( clock $end
$var wire 1 - daa_m $end
$var wire 1 . daa_t $end
$var wire 1 / daa_x $end
$var wire 8 0 in [7:0] $end
$var wire 1 1 is_add $end
$var wire 1 2 is_lgc $end
$var wire 1 3 of $end
$var wire 8 4 pin [7:0] $end
$var wire 1 * reset_n $end
$var wire 1 5 rot_left $end
$var wire 1 6 rot_shft $end
$var wire 1 7 rsize $end
$var wire 1 8 zf $end
$var wire 5 9 top [4:0] $end
$var wire 16 : signex [15:0] $end
$var wire 1 ; sf $end
$var wire 1 < rot_zf $end
$var wire 1 = rot_sf $end
$var wire 16 > rot_r [15:0] $end
$var wire 1 ? rot_pf $end
$var wire 1 @ rot_of $end
$var wire 12 A rot_f [11:0] $end
$var wire 1 B rot_cf $end
$var wire 16 C r53 [15:0] $end
$var wire 16 D r20 [15:0] $end
$var wire 1 E pf $end
$var wire 32 F mult [31:0] $end
$var wire 4 G mn [3:0] $end
$var wire 1 H m0 $end
$var wire 16 I ipx [15:0] $end
$var wire 16 J ipsign [15:0] $end
$var wire 16 K ipn [15:0] $end
$var wire 16 L ean [15:0] $end
$var wire 32 M dxax [31:0] $end
$var wire 17 N divr_next [16:0] $end
$var wire 1 O divr_bit $end
$var wire 8 P daa_r [7:0] $end
$var wire 9 Q daa_i [8:0] $end
$var wire 12 R daa_f [11:0] $end
$var wire 1 S daa_c $end
$var wire 1 T cf $end
$var wire 8 U branches [7:0] $end
$var wire 32 V ax00 [31:0] $end
$var wire 17 W alu_res [16:0] $end
$var wire 12 X alu_flag [11:0] $end
$var wire 20 Y address [19:0] $end
$var wire 16 Z aaa_r [15:0] $end
$var wire 9 [ aaa_h [8:0] $end
$var wire 12 \ aaa_f [11:0] $end
$var parameter 3 ] ADC $end
$var parameter 3 ^ ADD $end
$var parameter 32 _ AF $end
$var parameter 3 ` AND $end
$var parameter 3 a AX $end
$var parameter 3 b BP $end
$var parameter 3 c BX $end
$var parameter 32 d CF $end
$var parameter 3 e CMP $end
$var parameter 2 f CS $end
$var parameter 3 g CX $end
$var parameter 32 h DF $end
$var parameter 3 i DI $end
$var parameter 32 j DIV $end
$var parameter 2 k DS $end
$var parameter 3 l DX $end
$var parameter 2 m ES $end
$var parameter 32 n IF $end
$var parameter 32 o INTR $end
$var parameter 32 p LOAD $end
$var parameter 32 q MODRM $end
$var parameter 32 r OF $end
$var parameter 3 s OR $end
$var parameter 32 t PF $end
$var parameter 32 u POP $end
$var parameter 32 v PUSH $end
$var parameter 32 w RCL $end
$var parameter 32 x RCR $end
$var parameter 32 y ROL $end
$var parameter 32 z ROR $end
$var parameter 32 { RUN $end
$var parameter 32 | SAL $end
$var parameter 32 } SAR $end
$var parameter 3 ~ SBB $end
$var parameter 32 !" SF $end
$var parameter 32 "" SHL $end
$var parameter 32 #" SHR $end
$var parameter 3 $" SI $end
$var parameter 3 %" SP $end
$var parameter 2 &" SS $end
$var parameter 3 '" SUB $end
$var parameter 32 (" TF $end
$var parameter 32 )" UNDEF $end
$var parameter 32 *" WB $end
$var parameter 3 +" XOR $end
$var parameter 32 ," ZF $end
$var reg 3 -" _overs [2:0] $end
$var reg 2 ." _rep [1:0] $end
$var reg 3 /" alu [2:0] $end
$var reg 16 0" ax [15:0] $end
$var reg 16 1" bp [15:0] $end
$var reg 16 2" bx [15:0] $end
$var reg 1 3" cp $end
$var reg 1 4" cpen $end
$var reg 16 5" cs [15:0] $end
$var reg 16 6" cx [15:0] $end
$var reg 16 7" di [15:0] $end
$var reg 1 8" dir $end
$var reg 32 9" diva [31:0] $end
$var reg 6 :" divc [5:0] $end
$var reg 16 ;" divr [15:0] $end
$var reg 16 <" ds [15:0] $end
$var reg 16 =" dx [15:0] $end
$var reg 16 >" ea [15:0] $end
$var reg 16 ?" es [15:0] $end
$var reg 12 @" flag [11:0] $end
$var reg 16 A" ip [15:0] $end
$var reg 16 B" ips [15:0] $end
$var reg 4 C" m [3:0] $end
$var reg 8 D" modrm [7:0] $end
$var reg 16 E" op1 [15:0] $end
$var reg 16 F" op2 [15:0] $end
$var reg 8 G" opcode [7:0] $end
$var reg 8 H" out [7:0] $end
$var reg 3 I" overs [2:0] $end
$var reg 16 J" pa [15:0] $end
$var reg 1 # pr $end
$var reg 3 K" preip [2:0] $end
$var reg 1 " pw $end
$var reg 2 L" rep [1:0] $end
$var reg 16 M" seg [15:0] $end
$var reg 16 N" segold [15:0] $end
$var reg 16 O" si [15:0] $end
$var reg 1 P" signd $end
$var reg 1 Q" size $end
$var reg 16 R" sp [15:0] $end
$var reg 16 S" ss [15:0] $end
$var reg 6 T" ta [5:0] $end
$var reg 6 U" tb [5:0] $end
$var reg 6 V" tm [5:0] $end
$var reg 16 W" wb [15:0] $end
$var reg 1 ! we $end
$upscope $end
$upscope $end
$enddefinitions $end
$comment Show the parameter values. $end
$dumpall
b110 ,"
b110 +"
b10 *"
b1000 )"
b1000 ("
b101 '"
b10 &"
b100 %"
b110 $"
b101 #"
b100 ""
b111 !"
b11 ~
b111 }
b110 |
b1 {
b1 z
b0 y
b11 x
b10 w
b11 v
b100 u
b10 t
b1 s
b1011 r
b101 q
b0 p
b110 o
b1001 n
b0 m
b10 l
b11 k
b111 j
b111 i
b1010 h
b1 g
b1 f
b111 e
b0 d
b11 c
b101 b
b0 a
b100 `
b100 _
b0 ^
b10 ]
$end
#0
$dumpvars
bx W"
bx V"
bx U"
bx T"
b1101111010101101 S"
b1011101010111010 R"
xQ"
xP"
b10001 O"
bx N"
bx M"
bx L"
bx K"
bx J"
bx I"
bx H"
bx G"
bx F"
bx E"
bx D"
bx C"
bx B"
bx A"
b10 @"
b0 ?"
bx >"
b1111111111111111 ="
b0 <"
bx ;"
bx :"
bx 9"
x8"
b1101101011011101 7"
b111 6"
b0 5"
x4"
x3"
b10 2"
b1101111010101101 1"
b1001000110100 0"
bx /"
bx ."
bx -"
b10 \
b10010 [
b1001000000100 Z
bx Y
bx000xx0x0x1x X
bx W
b10010001101000000000000000000 V
b0 U
xT
0S
b10 R
b110100 Q
b110100 P
xO
bx N
b11111111111111110001001000110100 M
bx L
bx K
bx J
bx I
xH
bx G
bx F
xE
bx D
bx C
xB
bx000xx000x1x A
x@
x?
bx >
x=
x<
x;
bx :
b0x111 9
x8
x7
x6
x5
b11111111 4
x3
x2
x1
bx 0
0/
0.
0-
1,
x+
0*
bx )
0(
0'
bx &
bx %
bx $
x#
x"
x!
$end
#5
1'
#10
0'
#15
1'
#20
17
b11111111111111110000 &
b11111111111111110000 Y
b1111111111110000 I
b0 K"
b0 ."
b110 -"
0#
b1111000000000000 5"
b1111111111110001 K
b1111111111110000 A"
1H
b0 T"
03"
0'
1(
#25
1'
#30
0'
1*
#35
1'
#40
0'
0(
#45
1'
#50
0'
#55
1'
#60
b11111111111111110001 &
b11111111111111110001 Y
bx1 -"
b1 K"
b1111111111110010 K
b1111111111110000 I
b1111111111110001 A"
0"
0!
0'
1(
#65
1'
#70
0'
#75
1'
#80
0'
0(
#85
1'
#90
0'
#95
1'
#100
b11111111111111110010 &
b11111111111111110010 Y
b10 K"
b1111111111110011 K
b1111111111110000 I
b1111111111110010 A"
0'
1(
#105
1'
#110
0'
#115
1'
#120
0'
0(
#125
1'
#130
0'
#135
1'
#140
b11111111111111110011 &
b11111111111111110011 Y
b11 K"
b1111111111110100 K
b1111111111110000 I
b1111111111110011 A"
0'
1(
#145
1'
#150
0'
#155
1'
#160
0'
0(
#165
1'
#170
0'
#175
1'
#180
b11111111111111110100 &
b11111111111111110100 Y
b100 K"
b1111111111110101 K
b1111111111110000 I
b1111111111110100 A"
0'
1(
#185
1'
#190
0'
#195
1'
#200
0'
0(
#205
1'
#210
0'
#215
1'
#220
b11111111111111110101 &
b11111111111111110101 Y
b101 K"
b1111111111110110 K
b1111111111110000 I
b1111111111110101 A"
0'
1(
#225
1'
#230
0'
#235
1'
#240
0'
0(
#245
1'
#250
0'
#255
1'
#260
b11111111111111110110 &
b11111111111111110110 Y
b110 K"
b1111111111110111 K
b1111111111110000 I
b1111111111110110 A"
0'
1(
#265
1'
#270
0'
#275
1'
#280
0'
0(
#285
1'
#290
0'
#295
1'
#300
b11111111111111110111 &
b11111111111111110111 Y
b111 K"
b1111111111111000 K
b1111111111110000 I
b1111111111110111 A"
0'
1(
#305
1'
#310
0'
#315
1'
#320
0'
0(
#325
1'
#330
0'
#335
1'
#340
b11111111111111111000 &
b11111111111111111000 Y
b0 K"
b1111111111111001 K
b1111111111111000 I
b1111111111111000 A"
0'
1(
#345
1'
#350
0'
#355
1'
#360
0'
0(
#365
1'
#370
0'
#375
1'
#380
b11111111111111111001 &
b11111111111111111001 Y
b1 K"
b1111111111111010 K
b1111111111111000 I
b1111111111111001 A"
0'
1(
#385
1'
#390
0'
#395
1'
#400
0'
0(
#405
1'
#410
0'
#415
1'
#420
b11111111111111111010 &
b11111111111111111010 Y
b10 K"
b1111111111111011 K
b1111111111111000 I
b1111111111111010 A"
0'
1(
#425
1'
#430
0'
#435
1'
#440
0'
0(
#445
1'
#450
0'
#455
1'
#460
b11111111111111111011 &
b11111111111111111011 Y
b11 K"
b1111111111111100 K
b1111111111111000 I
b1111111111111011 A"
0'
1(
#465
1'
#470
0'
#475
1'
#480
0'
0(
#485
1'
#490
0'
#495
1'
#500
b11111111111111111100 &
b11111111111111111100 Y
b100 K"
b1111111111111101 K
b1111111111111000 I
b1111111111111100 A"
0'
1(
#505
1'
#510
0'
#515
1'
#520
0'
0(
#525
1'
#530
0'
#535
1'
#540
b11111111111111111101 &
b11111111111111111101 Y
b101 K"
b1111111111111110 K
b1111111111111000 I
b1111111111111101 A"
0'
1(
#545
1'
#550
0'
#555
1'
#560
0'
0(
#565
1'
#570
0'
#575
1'
#580
b11111111111111111110 &
b11111111111111111110 Y
b110 K"
b1111111111111111 K
b1111111111111000 I
b1111111111111110 A"
0'
1(
#585
1'
#590
0'
#595
1'
#600
0'
0(
#605
1'
#610
0'
#615
1'
#620
b11111111111111111111 &
b11111111111111111111 Y
b111 K"
b0 K
b1111111111111000 I
b1111111111111111 A"
0'
1(
#625
1'
#630
0'
#635
1'
#640
0'
0(
#645
1'
#650
0'
#655
1'
#660
b11110000000000000000 &
b11110000000000000000 Y
b0 K"
b1 K
b0 I
b0 A"
0'
1(
#665
1'
#670
0'
#675
1'
#680
0'
0(
#685
1'
#690
0'
#695
1'
#700
b11110000000000000001 &
b11110000000000000001 Y
b1 K"
b10 K
b0 I
b1 A"
0'
1(
#705
1'
#710
0'
#715
1'
#720
0'
0(
#725
1'
#730
0'
#735
1'
#740
b11110000000000000010 &
b11110000000000000010 Y
b10 K"
b11 K
b0 I
b10 A"
0'
1(
#745
1'
#750
0'
#755
1'
#760
0'
0(
#765
1'
#770
0'
#775
1'
#780
b11110000000000000011 &
b11110000000000000011 Y
b11 K"
b100 K
b0 I
b11 A"
0'
1(
#785
1'
#790
0'
#795
1'
#800
0'
0(
#805
1'
#810
0'
#815
1'
#820
b11110000000000000100 &
b11110000000000000100 Y
b100 K"
b101 K
b0 I
b100 A"
0'
1(
#825
1'
#830
0'
#835
1'
#840
0'
0(
#845
1'
#850
0'
#855
1'
#860
b11110000000000000101 &
b11110000000000000101 Y
b101 K"
b110 K
b0 I
b101 A"
0'
1(
#865
1'
#870
0'
#875
1'
#880
0'
0(
#885
1'
#890
0'
#895
1'
#900
b11110000000000000110 &
b11110000000000000110 Y
b110 K"
b111 K
b0 I
b110 A"
0'
1(
#905
1'
#910
0'
#915
1'
#920
0'
0(
#925
1'
#930
0'
#935
1'
#940
b11110000000000000111 &
b11110000000000000111 Y
b111 K"
b1000 K
b0 I
b111 A"
0'
1(
#945
1'
#950
0'
#955
1'
#960
0'
0(
#965
1'
#970
0'
#975
1'
#980
b11110000000000001000 &
b11110000000000001000 Y
b0 K"
b1001 K
b1000 I
b1000 A"
0'
1(
#985
1'
#990
0'
#995
1'
#1000
0'
0(
#1005
1'
#1010
0'
#1015
1'
#1020
b11110000000000001001 &
b11110000000000001001 Y
b1 K"
b1010 K
b1000 I
b1001 A"
0'
1(
#1025
1'
#1030
0'
#1035
1'
#1040
0'
0(
#1045
1'
#1050
0'
#1055
1'
#1060
b11110000000000001010 &
b11110000000000001010 Y
b10 K"
b1011 K
b1000 I
b1010 A"
0'
1(
#1065
1'
#1070
0'
#1075
1'
#1080
0'
0(
#1085
1'
#1090
0'
#1095
1'
#1100
b11110000000000001011 &
b11110000000000001011 Y
b11 K"
b1100 K
b1000 I
b1011 A"
0'
1(
#1105
1'
#1110
0'
#1115
1'
#1120
0'
0(
#1125
1'
#1130
0'
#1135
1'
#1140
b11110000000000001100 &
b11110000000000001100 Y
b100 K"
b1101 K
b1000 I
b1100 A"
0'
1(
#1145
1'
#1150
0'
#1155
1'
#1160
0'
0(
#1165
1'
#1170
0'
#1175
1'
#1180
b11110000000000001101 &
b11110000000000001101 Y
b101 K"
b1110 K
b1000 I
b1101 A"
0'
1(
#1185
1'
#1190
0'
#1195
1'
#1200
0'
0(
#1205
1'
#1210
0'
#1215
1'
#1220
b11110000000000001110 &
b11110000000000001110 Y
b110 K"
b1111 K
b1000 I
b1110 A"
0'
1(
#1225
1'
#1230
0'
#1235
1'
#1240
0'
0(
#1245
1'
#1250
0'
#1255
1'
#1260
b11110000000000001111 &
b11110000000000001111 Y
b111 K"
b10000 K
b1000 I
b1111 A"
0'
1(
#1265
1'
#1270
0'
#1275
1'
#1280
0'
0(
#1285
1'
#1290
0'
#1295
1'
#1300
b11110000000000010000 &
b11110000000000010000 Y
b0 K"
b10001 K
b10000 I
b10000 A"
0'
1(
#1305
1'
#1310
0'
#1315
1'
#1320
0'
0(
#1325
1'
#1330
0'
#1335
1'
#1340
b11110000000000010001 &
b11110000000000010001 Y
b1 K"
b10010 K
b10000 I
b10001 A"
0'
1(
#1345
1'
#1350
0'
#1355
1'
#1360
0'
0(
#1365
1'
#1370
0'
#1375
1'
#1380
b11110000000000010010 &
b11110000000000010010 Y
b10 K"
b10011 K
b10000 I
b10010 A"
0'
1(
#1385
1'
#1390
0'
#1395
1'
#1400
0'
0(
#1405
1'
#1410
0'
#1415
1'
#1420
b11110000000000010011 &
b11110000000000010011 Y
b11 K"
b10100 K
b10000 I
b10011 A"
0'
1(
#1425
1'
#1430
0'
#1435
1'
#1440
0'
0(
#1445
1'
#1450
0'
#1455
1'
#1460
b11110000000000010100 &
b11110000000000010100 Y
b100 K"
b10101 K
b10000 I
b10100 A"
0'
1(
#1465
1'
#1470
0'
#1475
1'
#1480
0'
0(
#1485
1'
#1490
0'
#1495
1'
#1500
b11110000000000010101 &
b11110000000000010101 Y
b101 K"
b10110 K
b10000 I
b10101 A"
0'
1(
#1505
1'
#1510
0'
#1515
1'
#1520
0'
0(
#1525
1'
#1530
0'
#1535
1'
#1540
b11110000000000010110 &
b11110000000000010110 Y
b110 K"
b10111 K
b10000 I
b10110 A"
0'
1(
#1545
1'
#1550
0'
#1555
1'
#1560
0'
0(
#1565
1'
#1570
0'
#1575
1'
#1580
b11110000000000010111 &
b11110000000000010111 Y
b111 K"
b11000 K
b10000 I
b10111 A"
0'
1(
#1585
1'
#1590
0'
#1595
1'
#1600
0'
0(
#1605
1'
#1610
0'
#1615
1'
#1620
b11110000000000011000 &
b11110000000000011000 Y
b0 K"
b11001 K
b11000 I
b11000 A"
0'
1(
#1625
1'
#1630
0'
#1635
1'
#1640
0'
0(
#1645
1'
#1650
0'
#1655
1'
#1660
b11110000000000011001 &
b11110000000000011001 Y
b1 K"
b11010 K
b11000 I
b11001 A"
0'
1(
#1665
1'
#1670
0'
#1675
1'
#1680
0'
0(
#1685
1'
#1690
0'
#1695
1'
#1700
b11110000000000011010 &
b11110000000000011010 Y
b10 K"
b11011 K
b11000 I
b11010 A"
0'
1(
#1705
1'
#1710
0'
#1715
1'
#1720
0'
0(
#1725
1'
#1730
0'
#1735
1'
#1740
b11110000000000011011 &
b11110000000000011011 Y
b11 K"
b11100 K
b11000 I
b11011 A"
0'
1(
#1745
1'
#1750
0'
#1755
1'
#1760
0'
0(
#1765
1'
#1770
0'
#1775
1'
#1780
b11110000000000011100 &
b11110000000000011100 Y
b100 K"
b11101 K
b11000 I
b11100 A"
0'
1(
#1785
1'
#1790
0'
#1795
1'
#1800
0'
0(
#1805
1'
#1810
0'
#1815
1'
#1820
b11110000000000011101 &
b11110000000000011101 Y
b101 K"
b11110 K
b11000 I
b11101 A"
0'
1(
#1825
1'
#1830
0'
#1835
1'
#1840
0'
0(
#1845
1'
#1850
0'
#1855
1'
#1860
b11110000000000011110 &
b11110000000000011110 Y
b110 K"
b11111 K
b11000 I
b11110 A"
0'
1(
#1865
1'
#1870
0'
#1875
1'
#1880
0'
0(
#1885
1'
#1890
0'
#1895
1'
#1900
b11110000000000011111 &
b11110000000000011111 Y
b111 K"
b100000 K
b11000 I
b11111 A"
0'
1(
#1905
1'
#1910
0'
#1915
1'
#1920
0'
0(
#1925
1'
#1930
0'
#1935
1'
#1940
b11110000000000100000 &
b11110000000000100000 Y
b0 K"
b100001 K
b100000 I
b100000 A"
0'
1(
#1945
1'
#1950
0'
#1955
1'
#1960
0'
0(
#1965
1'
#1970
0'
#1975
1'
#1980
b11110000000000100001 &
b11110000000000100001 Y
b1 K"
b100010 K
b100000 I
b100001 A"
0'
1(
#1985
1'
#1990
0'
#1995
1'
#2000
0'
0(
#2005
1'
#2010
0'
#2015
1'
#2020
b11110000000000100010 &
b11110000000000100010 Y
b10 K"
b100011 K
b100000 I
b100010 A"
0'
1(
#2025
1'
#2030
0'
#2035
1'
#2040
0'
0(
#2045
1'
#2050
0'
#2055
1'
#2060
b11110000000000100011 &
b11110000000000100011 Y
b11 K"
b100100 K
b100000 I
b100011 A"
0'
1(
#2065
1'
#2070
0'
#2075
1'
#2080
0'
0(
#2085
1'
#2090
0'
#2095
1'
#2100
b11110000000000100100 &
b11110000000000100100 Y
b100 K"
b100101 K
b100000 I
b100100 A"
0'
1(
#2105
1'
#2110
0'
#2115
1'
#2120
0'
0(
#2125
1'
#2130
0'
#2135
1'
#2140
b11110000000000100101 &
b11110000000000100101 Y
b101 K"
b100110 K
b100000 I
b100101 A"
0'
1(
#2145
1'
#2150
0'
#2155
1'
#2160
0'
0(
#2165
1'
#2170
0'
#2175
1'
#2180
b11110000000000100110 &
b11110000000000100110 Y
b110 K"
b100111 K
b100000 I
b100110 A"
0'
1(
#2185
1'
#2190
0'
#2195
1'
#2200
0'
0(
#2205
1'
#2210
0'
#2215
1'
#2220
b11110000000000100111 &
b11110000000000100111 Y
b111 K"
b101000 K
b100000 I
b100111 A"
0'
1(
#2225
1'
#2230
0'
#2235
1'
#2240
0'
0(
#2245
1'
#2250
0'
#2255
1'
#2260
b11110000000000101000 &
b11110000000000101000 Y
b0 K"
b101001 K
b101000 I
b101000 A"
0'
1(
#2265
1'
#2270
0'
#2275
1'
#2280
0'
0(
#2285
1'
#2290
0'
#2295
1'
#2300
b11110000000000101001 &
b11110000000000101001 Y
b1 K"
b101010 K
b101000 I
b101001 A"
0'
1(
#2305
1'
#2310
0'
#2315
1'
#2320
0'
0(
#2325
1'
#2330
0'
#2335
1'
#2340
b11110000000000101010 &
b11110000000000101010 Y
b10 K"
b101011 K
b101000 I
b101010 A"
0'
1(
#2345
1'
#2350
0'
#2355
1'
#2360
0'
0(
#2365
1'
#2370
0'
#2375
1'
#2380
b11110000000000101011 &
b11110000000000101011 Y
b11 K"
b101100 K
b101000 I
b101011 A"
0'
1(
#2385
1'
#2390
0'
#2395
1'
#2400
0'
0(
#2405
1'
#2410
0'
#2415
1'
#2420
b11110000000000101100 &
b11110000000000101100 Y
b100 K"
b101101 K
b101000 I
b101100 A"
0'
1(
#2425
1'
#2430
0'
#2435
1'
#2440
0'
0(
#2445
1'
#2450
0'
#2455
1'
#2460
b11110000000000101101 &
b11110000000000101101 Y
b101 K"
b101110 K
b101000 I
b101101 A"
0'
1(
#2465
1'
#2470
0'
#2475
1'
#2480
0'
0(
#2485
1'
#2490
0'
#2495
1'
#2500
b11110000000000101110 &
b11110000000000101110 Y
b110 K"
b101111 K
b101000 I
b101110 A"
0'
1(
#2505
1'
#2510
0'
#2515
1'
#2520
0'
0(
#2525
1'
#2530
0'
#2535
1'
#2540
b11110000000000101111 &
b11110000000000101111 Y
b111 K"
b110000 K
b101000 I
b101111 A"
0'
1(
#2545
1'
#2550
0'
#2555
1'
#2560
0'
0(
#2565
1'
#2570
0'
#2575
1'
#2580
b11110000000000110000 &
b11110000000000110000 Y
b0 K"
b110001 K
b110000 I
b110000 A"
0'
1(
#2585
1'
#2590
0'
#2595
1'
#2600
0'
0(
#2605
1'
#2610
0'
#2615
1'
#2620
b11110000000000110001 &
b11110000000000110001 Y
b1 K"
b110010 K
b110000 I
b110001 A"
0'
1(
#2625
1'
#2630
0'
#2635
1'
#2640
0'
0(
#2645
1'
#2650
0'
#2655
1'
#2660
b11110000000000110010 &
b11110000000000110010 Y
b10 K"
b110011 K
b110000 I
b110010 A"
0'
1(
#2665
1'
#2670
0'
#2675
1'
#2680
0'
0(
#2685
1'
#2690
0'
#2695
1'
#2700
b11110000000000110011 &
b11110000000000110011 Y
b11 K"
b110100 K
b110000 I
b110011 A"
0'
1(
#2705
1'
#2710
0'
#2715
1'
#2720
0'
0(
#2725
1'
#2730
0'
#2735
1'
#2740
b11110000000000110100 &
b11110000000000110100 Y
b100 K"
b110101 K
b110000 I
b110100 A"
0'
1(
#2745
1'
#2750
0'
#2755
1'
#2760
0'
0(
#2765
1'
#2770
0'
#2775
1'
#2780
b11110000000000110101 &
b11110000000000110101 Y
b101 K"
b110110 K
b110000 I
b110101 A"
0'
1(
#2785
1'
#2790
0'
#2795
1'
#2800
0'
0(
#2805
1'
#2810
0'
#2815
1'
#2820
b11110000000000110110 &
b11110000000000110110 Y
b110 K"
b110111 K
b110000 I
b110110 A"
0'
1(
#2825
1'
#2830
0'
#2835
1'
#2840
0'
0(
#2845
1'
#2850
0'
#2855
1'
#2860
b11110000000000110111 &
b11110000000000110111 Y
b111 K"
b111000 K
b110000 I
b110111 A"
0'
1(
#2865
1'
#2870
0'
#2875
1'
#2880
0'
0(
#2885
1'
#2890
0'
#2895
1'
#2900
b11110000000000111000 &
b11110000000000111000 Y
b0 K"
b111001 K
b111000 I
b111000 A"
0'
1(
#2905
1'
#2910
0'
#2915
1'
#2920
0'
0(
#2925
1'
#2930
0'
#2935
1'
#2940
b11110000000000111001 &
b11110000000000111001 Y
b1 K"
b111010 K
b111000 I
b111001 A"
0'
1(
#2945
1'
#2950
0'
#2955
1'
#2960
0'
0(
#2965
1'
#2970
0'
#2975
1'
#2980
b11110000000000111010 &
b11110000000000111010 Y
b10 K"
b111011 K
b111000 I
b111010 A"
0'
1(
#2985
1'
#2990
0'
#2995
1'
#3000
0'
0(
#3005
1'
#3010
0'
#3015
1'
#3020
b11110000000000111011 &
b11110000000000111011 Y
b11 K"
b111100 K
b111000 I
b111011 A"
0'
1(
#3025
1'
#3030
0'
#3035
1'
#3040
0'
0(
#3045
1'
#3050
0'
#3055
1'
#3060
b11110000000000111100 &
b11110000000000111100 Y
b100 K"
b111101 K
b111000 I
b111100 A"
0'
1(
#3065
1'
#3070
0'
#3075
1'
#3080
0'
0(
#3085
1'
#3090
0'
#3095
1'
#3100
b11110000000000111101 &
b11110000000000111101 Y
b101 K"
b111110 K
b111000 I
b111101 A"
0'
1(
#3105
1'
#3110
0'
#3115
1'
#3120
0'
0(
#3125
1'
#3130
0'
#3135
1'
#3140
b11110000000000111110 &
b11110000000000111110 Y
b110 K"
b111111 K
b111000 I
b111110 A"
0'
1(
#3145
1'
#3150
0'
#3155
1'
#3160
0'
0(
#3165
1'
#3170
0'
#3175
1'
#3180
b11110000000000111111 &
b11110000000000111111 Y
b111 K"
b1000000 K
b111000 I
b111111 A"
0'
1(
#3185
1'
#3190
0'
#3195
1'
#3200
0'
0(
#3205
1'
#3210
0'
#3215
1'
#3220
b11110000000001000000 &
b11110000000001000000 Y
b0 K"
b1000001 K
b1000000 I
b1000000 A"
0'
1(
#3225
1'
#3230
0'
#3235
1'
#3240
0'
0(
#3245
1'
#3250
0'
#3255
1'
#3260
b11110000000001000001 &
b11110000000001000001 Y
b1 K"
b1000010 K
b1000000 I
b1000001 A"
0'
1(
#3265
1'
#3270
0'
#3275
1'
#3280
0'
0(
#3285
1'
#3290
0'
#3295
1'
#3300
b11110000000001000010 &
b11110000000001000010 Y
b10 K"
b1000011 K
b1000000 I
b1000010 A"
0'
1(
#3305
1'
#3310
0'
#3315
1'
#3320
0'
0(
#3325
1'
#3330
0'
#3335
1'
#3340
b11110000000001000011 &
b11110000000001000011 Y
b11 K"
b1000100 K
b1000000 I
b1000011 A"
0'
1(
#3345
1'
#3350
0'
#3355
1'
#3360
0'
0(
#3365
1'
#3370
0'
#3375
1'
#3380
b11110000000001000100 &
b11110000000001000100 Y
b100 K"
b1000101 K
b1000000 I
b1000100 A"
0'
1(
#3385
1'
#3390
0'
#3395
1'
#3400
0'
0(
#3405
1'
#3410
0'
#3415
1'
#3420
b11110000000001000101 &
b11110000000001000101 Y
b101 K"
b1000110 K
b1000000 I
b1000101 A"
0'
1(
#3425
1'
#3430
0'
#3435
1'
#3440
0'
0(
#3445
1'
#3450
0'
#3455
1'
#3460
b11110000000001000110 &
b11110000000001000110 Y
b110 K"
b1000111 K
b1000000 I
b1000110 A"
0'
1(
#3465
1'
#3470
0'
#3475
1'
#3480
0'
0(
#3485
1'
#3490
0'
#3495
1'
#3500
b11110000000001000111 &
b11110000000001000111 Y
b111 K"
b1001000 K
b1000000 I
b1000111 A"
0'
1(
#3505
1'
#3510
0'
#3515
1'
#3520
0'
0(
#3525
1'
#3530
0'
#3535
1'
#3540
b11110000000001001000 &
b11110000000001001000 Y
b0 K"
b1001001 K
b1001000 I
b1001000 A"
0'
1(
#3545
1'
#3550
0'
#3555
1'
#3560
0'
0(
#3565
1'
#3570
0'
#3575
1'
#3580
b11110000000001001001 &
b11110000000001001001 Y
b1 K"
b1001010 K
b1001000 I
b1001001 A"
0'
1(
#3585
1'
#3590
0'
#3595
1'
#3600
0'
0(
#3605
1'
#3610
0'
#3615
1'
#3620
b11110000000001001010 &
b11110000000001001010 Y
b10 K"
b1001011 K
b1001000 I
b1001010 A"
0'
1(
#3625
1'
#3630
0'
#3635
1'
#3640
0'
0(
#3645
1'
#3650
0'
#3655
1'
#3660
b11110000000001001011 &
b11110000000001001011 Y
b11 K"
b1001100 K
b1001000 I
b1001011 A"
0'
1(
#3665
1'
#3670
0'
#3675
1'
#3680
0'
0(
#3685
1'
#3690
0'
#3695
1'
#3700
b11110000000001001100 &
b11110000000001001100 Y
b100 K"
b1001101 K
b1001000 I
b1001100 A"
0'
1(
#3705
1'
#3710
0'
#3715
1'
#3720
0'
0(
#3725
1'
#3730
0'
#3735
1'
#3740
b11110000000001001101 &
b11110000000001001101 Y
b101 K"
b1001110 K
b1001000 I
b1001101 A"
0'
1(
#3745
1'
#3750
0'
#3755
1'
#3760
0'
0(
#3765
1'
#3770
0'
#3775
1'
#3780
b11110000000001001110 &
b11110000000001001110 Y
b110 K"
b1001111 K
b1001000 I
b1001110 A"
0'
1(
#3785
1'
#3790
0'
#3795
1'
#3800
0'
0(
#3805
1'
#3810
0'
#3815
1'
#3820
b11110000000001001111 &
b11110000000001001111 Y
b111 K"
b1010000 K
b1001000 I
b1001111 A"
0'
1(
#3825
1'
#3830
0'
#3835
1'
#3840
0'
0(
#3845
1'
#3850
0'
#3855
1'
#3860
b11110000000001010000 &
b11110000000001010000 Y
b0 K"
b1010001 K
b1010000 I
b1010000 A"
0'
1(
#3865
1'
#3870
0'
#3875
1'
#3880
0'
0(
#3885
1'
#3890
0'
#3895
1'
#3900
b11110000000001010001 &
b11110000000001010001 Y
b1 K"
b1010010 K
b1010000 I
b1010001 A"
0'
1(
#3905
1'
#3910
0'
#3915
1'
#3920
0'
0(
#3925
1'
#3930
0'
#3935
1'
#3940
b11110000000001010010 &
b11110000000001010010 Y
b10 K"
b1010011 K
b1010000 I
b1010010 A"
0'
1(
#3945
1'
#3950
0'
#3955
1'
#3960
0'
0(
#3965
1'
#3970
0'
#3975
1'
#3980
b11110000000001010011 &
b11110000000001010011 Y
b11 K"
b1010100 K
b1010000 I
b1010011 A"
0'
1(
#3985
1'
#3990
0'
#3995
1'
#4000
0'
0(
#4005
1'
#4010
0'
#4015
1'
#4020
b11110000000001010100 &
b11110000000001010100 Y
b100 K"
b1010101 K
b1010000 I
b1010100 A"
0'
1(
#4025
1'
#4030
0'
#4035
1'
#4040
0'
0(
#4045
1'
#4050
0'
#4055
1'
#4060
b11110000000001010101 &
b11110000000001010101 Y
b101 K"
b1010110 K
b1010000 I
b1010101 A"
0'
1(
#4065
1'
#4070
0'
#4075
1'
#4080
0'
0(
#4085
1'
#4090
0'
#4095
1'
#4100
b11110000000001010110 &
b11110000000001010110 Y
b110 K"
b1010111 K
b1010000 I
b1010110 A"
0'
1(
#4105
1'
#4110
0'
#4115
1'
#4120
0'
0(
#4125
1'
#4130
0'
#4135
1'
